2023/lib/PLL/sim/waveform.vcd
$version Generated by VerilatedVcd $end
$date 11/28/22 19:58:48 $end
$timescale 1ps $end

 $scope module TOP $end
  $var wire  1 3 ce $end
  $var wire  1 / clk $end
  $var wire 14 8 dbg [13:0] $end
  $var wire  2 7 err [1:0] $end
  $var wire  1 4 i_input $end
  $var wire  1 1 ld $end
  $var wire  5 5 lgcoeff [4:0] $end
  $var wire 32 6 phase [31:0] $end
  $var wire  1 0 rst $end
  $var wire 31 2 step [30:0] $end
  $scope module top_sdpll $end
   $var wire  1 3 ce $end
   $var wire  1 / clk $end
   $var wire 14 8 dbg [13:0] $end
   $var wire  2 7 err [1:0] $end
   $var wire  1 4 i_input $end
   $var wire  1 1 ld $end
   $var wire  5 5 lgcoeff [4:0] $end
   $var wire 32 6 phase [31:0] $end
   $var wire  1 0 rst $end
   $var wire 31 2 step [30:0] $end
   $scope module dut $end
    $var wire 32 = INITIAL_PHASE_STEP [31:0] $end
    $var wire 32 > MSB [31:0] $end
    $var wire  1 < OPT_GLITCHLESS [0:0] $end
    $var wire  1 < OPT_TRACK_FREQUENCY [0:0] $end
    $var wire 32 ; PHASE_BITS [31:0] $end
    $var wire  1 # agreed_output $end
    $var wire 32 $ ctr [31:0] $end
    $var wire 32 & freq_correction [31:0] $end
    $var wire  1 3 i_ce $end
    $var wire  1 / i_clk $end
    $var wire  1 4 i_input $end
    $var wire  1 1 i_ld $end
    $var wire  5 5 i_lgcoeff [4:0] $end
    $var wire 31 2 i_step [30:0] $end
    $var wire  1 9 lead $end
    $var wire 14 8 o_dbg [13:0] $end
    $var wire  2 7 o_err [1:0] $end
    $var wire 32 6 o_phase [31:0] $end
    $var wire 32 % phase_correction [31:0] $end
    $var wire  1 : phase_err $end
    $var wire 32 ' r_step [31:0] $end
    $scope module bcar $end
     $var wire  1 B FIXED_NAVG [0:0] $end
     $var wire 12 C INITIAL_NAVG [11:0] $end
     $var wire 32 ? IW [31:0] $end
     $var wire 32 @ LGMEM [31:0] $end
     $var wire  1 B OPT_SIGNED [0:0] $end
     $var wire 32 A OW [31:0] $end
     $var wire 14 . acc [13:0] $end
     $var wire  1 ( full $end
     $var wire  1 3 i_ce $end
     $var wire  1 / i_clk $end
     $var wire 12 E i_navg [11:0] $end
     $var wire  1 D i_reset $end
     $var wire  2 7 i_sample [1:0] $end
     $var wire  2 , memval [1:0] $end
     $var wire 14 8 o_result [13:0] $end
     $var wire  2 + preval [1:0] $end
     $var wire 12 ) rdaddr [11:0] $end
     $var wire 14 . rounded [13:0] $end
     $var wire  3 - sub [2:0] $end
     $var wire 12 E w_requested_navg [11:0] $end
     $var wire 12 * wraddr [11:0] $end
    $upscope $end
   $upscope $end
  $upscope $end
 $upscope $end
$enddefinitions $end


#0
0#
b00000000000000000000000000000000 $
b00000000000000000000000000000000 %
b00000000000000000000000000000000 &
b00000000000000000000000000000000 '
0(
b000000000000 )
b000000000000 *
b00 +
b00 ,
b000 -
b00000000000000 .
1/
10
01
b0000000000000000000000000000000 2
03
04
b00000 5
b00000000000000000000000000000000 6
b00 7
b00000000000000 8
09
0:
b00000000000000000000000000100000 ;
1<
b00000000000000000000000000000000 =
b00000000000000000000000000011111 >
b00000000000000000000000000000010 ?
b00000000000000000000000000001100 @
b00000000000000000000000000001110 A
0B
b111111111111 C
0D
b111011111111 E
#1
0/
#2
b10000000000000000000000000000000 %
b00100000000000000000000000000000 &
1/
#3
0/
#4
1/
#5
0/
00
#6
1/
#7
0/
#8
1/
#9
0/
#10
1/
#11
0/
#12
1/
#13
0/
#14
1/
#15
0/
#16
1/
#17
0/
#18
1/
#19
0/
#20
1/
10
#21
0/
00
#22
1/
10
#23
0/
00
#24
1/
10
#25
0/
00
#26
1/
10
#27
0/
00
#28
1/
10
#29
0/
00
#30
1/
10
#31
0/
00
#32
1/
10
#33
0/
00
#34
1/
10
#35
0/
00
#36
1/
10
#37
0/
00
#38
1/
10
#39
0/
00
#40
1/
10
#41
0/
00
#42
1/
10
#43
0/
00
#44
1/
10
#45
0/
00
#46
1/
10
#47
0/
00
#48
1/
10
#49
0/
00
#50
1/
10
#51
0/
00
#52
1/
10
#53
0/
00
#54
1/
10
#55
0/
00
#56
1/
10
#57
0/
00
