2023/lib/UART/sim/waveform.vcd
$version Generated by VerilatedVcd $end
$date Thu Oct  6 18:09:45 2022
 $end
$timescale   1ps $end

 $scope module TOP $end
  $var wire  1 B UART_IN $end
  $var wire  7 F bauld [6:0] $end
  $var wire  1 = clk $end
  $var wire  1 G data_ted $end
  $var wire  1 ? in_valid $end
  $var wire  8 > in_w_data [7:0] $end
  $var wire  1 @ out_BUSY $end
  $var wire  1 D out_RXNE $end
  $var wire  1 E out_Rx_ORE $end
  $var wire  1 A out_signal $end
  $var wire  8 C out_word [7:0] $end
  $var wire  4 H state_cnt [3:0] $end
  $scope module top_Uart $end
   $var wire 32 J CLK_BAULD [31:0] $end
   $var wire 32 K KBAUD [31:0] $end
   $var wire  1 ' TxComplete $end
   $var wire  1 $ Tx_start $end
   $var wire  1 B UART_IN $end
   $var wire  7 F bauld [6:0] $end
   $var wire  7 ) bauld_r [6:0] $end
   $var wire  1 = clk $end
   $var wire  1 G data_ted $end
   $var wire  1 ? in_valid $end
   $var wire  1 & in_valid_old $end
   $var wire  8 > in_w_data [7:0] $end
   $var wire  1 @ out_BUSY $end
   $var wire  1 D out_RXNE $end
   $var wire  1 E out_Rx_ORE $end
   $var wire  1 A out_signal $end
   $var wire  8 C out_word [7:0] $end
   $var wire  8 # r_Tx_DataByte [7:0] $end
   $var wire  1 % r_Tx_busy $end
   $var wire  1 $ r_Tx_start $end
   $var wire  1 L r_out_Rx_ORE $end
   $var wire  1 * r_rst $end
   $var wire  1 * rst $end
   $var wire  5 ( rst_counter [4:0] $end
   $var wire  4 H state_cnt [3:0] $end
   $scope module uartRx $end
    $var wire 32 M CNT_BITS [31:0] $end
    $var wire 32 K KBAUD [31:0] $end
    $var wire 32 N KBAUD_half [31:0] $end
    $var wire  1 D Rx_done $end
    $var wire  1 6 Rx_done_r $end
    $var wire  1 7 Rx_done_r_old $end
    $var wire  1 B UART_IN $end
    $var wire  1 I UART_IN_FE $end
    $var wire  1 / UART_IN_old $end
    $var wire  8 . UR_data [7:0] $end
    $var wire  7 3 baud_cnt [6:0] $end
    $var wire  1 = clk $end
    $var wire  1 + clk_UART $end
    $var wire  1 - clk_UART_RE $end
    $var wire  1 , clk_UART_old $end
    $var wire  4 0 data_index [3:0] $end
    $var wire  8 C out_data [7:0] $end
    $var wire  8 4 r_out_data [7:0] $end
    $var wire  1 * rst $end
    $var wire 32 P s_DATA [31:0] $end
    $var wire 32 O s_IDLE [31:0] $end
    $var wire 32 Q s_STOP [31:0] $end
    $var wire  1 5 startReceive $end
    $var wire  2 1 state [1:0] $end
    $var wire  2 2 state_old [1:0] $end
   $upscope $end
   $scope module uartTx $end
    $var wire  8 : Data [7:0] $end
    $var wire 32 K KBAUD [31:0] $end
    $var wire  7 9 baud_cnt [6:0] $end
    $var wire  1 = clk $end
    $var wire  8 # in_DataByte [7:0] $end
    $var wire  1 $ in_Start $end
    $var wire  1 A out_DataBit $end
    $var wire  1 ' out_fComplete $end
    $var wire  4 ; r_data_cnt [3:0] $end
    $var wire  1 < r_out_dataBit $end
    $var wire  1 ' r_out_fComplete $end
    $var wire 32 R s_DATA [31:0] $end
    $var wire 32 O s_START [31:0] $end
    $var wire 32 P s_STOP [31:0] $end
    $var wire  2 8 state [1:0] $end
   $upscope $end
  $upscope $end
 $upscope $end
$enddefinitions $end


#0
b00000000 #
1$
0%
0&
0'
b10100 (
b0000000 )
0*
0+
0,
0-
b00000000 .
0/
b0000 0
b00 1
b00 2
b0000000 3
b00000000 4
05
06
07
b00 8
b0000000 9
b00000000 :
b0000 ;
0<
1=
b00000000 >
0?
0@
0A
1B
b00000000 C
0D
0E
b0000000 F
0G
b0000 H
0I
b00000000000000000000000001100100 J
b00000000000000000000000001101000 K
0L
b00000000000000000000000000000111 M
b00000000000000000000000000110100 N
b00000000000000000000000000000000 O
b00000000000000000000000000000010 P
b00000000000000000000000000000011 Q
b00000000000000000000000000000001 R
#1
0=
#2
1%
1'
b10011 (
b1101000 )
1*
1/
1<
1=
1@
1A
b1101000 F
#3
0=
#4
0%
b10010 (
1+
1,
1=
0@
#5
0=
#6
b10001 (
1=
1?
#7
0=
#8
0$
1%
1&
b10000 (
1=
0?
1@
#9
0=
#10
1$
0&
0'
b01111 (
b01 8
b1100111 9
0<
1=
1?
0A
#11
0=
#12
1&
b01110 (
b1100110 9
1=
#13
0=
#14
b01101 (
b1100101 9
1=
0?
#15
0=
#16
0&
b01100 (
b1100100 9
1=
1?
#17
0=
#18
1&
b01011 (
b1100011 9
1=
0?
#19
0=
#20
0&
b01010 (
b1100010 9
1=
#21
0=
#22
b01001 (
b1100001 9
1=
1?
#23
0=
#24
1&
b01000 (
b1100000 9
1=
0?
#25
0=
#26
0&
b00111 (
b1011111 9
1=
#27
0=
#28
b00110 (
b1011110 9
1=
#29
0=
#30
b00101 (
b1011101 9
1=
#31
0=
#32
b00100 (
b1011100 9
1=
#33
0=
#34
b00011 (
b1011011 9
1=
1?
#35
0=
#36
1&
b00010 (
b1011010 9
1=
0?
#37
0=
#38
0&
b00001 (
b1011001 9
1=
1?
#39
0=
#40
1&
b00000 (
b1011000 9
1=
#41
0=
#42
0*
b1010111 9
1=
0?
#43
0=
#44
0&
b1010110 9
1=
#45
0=
#46
b1010101 9
1=
1?
#47
0=
#48
1&
b1010100 9
1=
#49
0=
#50
b1010011 9
1=
#51
0=
#52
b1010010 9
1=
#53
0=
#54
b1010001 9
1=
#55
0=
#56
b1010000 9
1=
#57
0=
#58
b1001111 9
1=
0?
#59
0=
#60
0&
b1001110 9
1=
1?
#61
0=
#62
1&
b1001101 9
1=
0?
#63
0=
#64
0&
b1001100 9
1=
1?
#65
0=
#66
1&
b1001011 9
1=
#67
0=
#68
b1001010 9
1=
#69
0=
#70
b1001001 9
1=
#71
0=
#72
b1001000 9
1=
#73
0=
#74
b1000111 9
1=
#75
0=
#76
b1000110 9
1=
0?
#77
0=
#78
0&
b1000101 9
1=
#79
0=
#80
b1000100 9
1=
1?
#81
0=
#82
1&
b1000011 9
1=
0?
#83
0=
#84
0&
b1000010 9
1=
1?
#85
0=
#86
1&
b1000001 9
1=
#87
0=
#88
b1000000 9
1=
0?
#89
0=
#90
0&
b0111111 9
1=
1?
#91
0=
#92
1&
b0111110 9
1=
#93
0=
#94
b0111101 9
1=
#95
0=
#96
b0111100 9
1=
#97
0=
#98
b0111011 9
1=
0?
#99
0=
#100
0&
b0111010 9
1=
#101
0=
#102
b0111001 9
1=
#103
0=
#104
b0111000 9
1=
#105
0=
#106
b0110111 9
1=
1?
#107
0=
#108
1&
b0110110 9
1=
#109
0=
#110
b0110101 9
1=
#111
0=
#112
b0110100 9
1=
0?
#113
0=
#114
0&
b0110011 9
1=
#115
0=
#116
b0110010 9
1=
1?
#117
0=
#118
1&
b0110001 9
1=
#119
0=
#120
b0110000 9
1=
#121
0=
#122
b0101111 9
1=
0?
#123
0=
#124
0&
b0101110 9
1=
1?
#125
0=
#126
1&
b0101101 9
1=
0?
#127
0=
#128
0&
b0101100 9
1=
1?
#129
0=
#130
1&
b0101011 9
1=
#131
0=
#132
b0101010 9
1=
#133
0=
#134
b0101001 9
1=
0?
#135
0=
#136
0&
b0101000 9
1=
#137
0=
#138
b0100111 9
1=
1?
#139
0=
#140
1&
b0100110 9
1=
#141
0=
#142
b0100101 9
1=
#143
0=
#144
b0100100 9
1=
#145
0=
#146
b0100011 9
1=
0?
#147
0=
#148
0&
b0100010 9
1=
#149
0=
#150
b0100001 9
1=
#151
0=
#152
b0100000 9
1=
#153
0=
#154
b0011111 9
1=
1?
#155
0=
#156
1&
b0011110 9
1=
#157
0=
#158
b0011101 9
1=
#159
0=
#160
b0011100 9
1=
#161
0=
#162
b0011011 9
1=
#163
0=
#164
b0011010 9
1=
#165
0=
#166
b0011001 9
1=
0?
#167
0=
#168
0&
b0011000 9
1=
#169
0=
#170
b0010111 9
1=
#171
0=
#172
b0010110 9
1=
1?
#173
0=
#174
1&
b0010101 9
1=
0?
#175
0=
#176
0&
b0010100 9
1=
#177
0=
#178
b0010011 9
1=
#179
0=
#180
b0010010 9
1=
#181
0=
#182
b0010001 9
1=
1?
#183
0=
#184
1&
b0010000 9
1=
0?
#185
0=
#186
0&
b0001111 9
1=
1?
#187
0=
#188
1&
b0001110 9
1=
#189
0=
#190
b0001101 9
1=
0?
#191
0=
#192
0&
b0001100 9
1=
#193
0=
#194
b0001011 9
1=
1?
#195
0=
#196
1&
b0001010 9
1=
0?
#197
0=
#198
0&
b0001001 9
1=
#199
0=
#200
b0001000 9
1=
#201
0=
#202
b0000111 9
1=
1?
#203
0=
#204
1&
b0000110 9
1=
#205
0=
#206
b0000101 9
1=
0?
#207
0=
#208
0&
b0000100 9
1=
#209
0=
#210
b0000011 9
1=
1?
#211
0=
#212
1&
b0000010 9
1=
0?
#213
0=
#214
0&
b0000001 9
1=
#215
0=
#216
b0000000 9
1=
1?
#217
0=
#218
1&
b1100111 9
b0001 ;
1=
#219
0=
#220
b1100110 9
1=
#221
0=
#222
b1100101 9
1=
0?
#223
0=
#224
0&
b1100100 9
1=
#225
0=
#226
b1100011 9
1=
#227
0=
#228
b1100010 9
1=
0B
#229
0=
1I
#230
0/
b0110011 3
15
b1100001 9
1=
1?
0I
#231
0=
#232
1&
b0110100 3
b1100000 9
1=
0?
#233
0=
#234
0&
0+
b0000000 3
b1011111 9
1=
#235
0=
#236
0,
b0000001 3
b1011110 9
1=
1?
#237
0=
#238
1&
b0000010 3
b1011101 9
1=
0?
#239
0=
#240
0&
b0000011 3
b1011100 9
1=
#241
0=
#242
b0000100 3
b1011011 9
1=
1?
#243
0=
#244
1&
b0000101 3
b1011010 9
1=
0?
#245
0=
#246
0&
b0000110 3
b1011001 9
1=
1?
#247
0=
#248
1&
b0000111 3
b1011000 9
1=
#249
0=
#250
b0001000 3
b1010111 9
1=
#251
0=
#252
b0001001 3
b1010110 9
1=
#253
0=
#254
b0001010 3
b1010101 9
1=
#255
0=
#256
b0001011 3
b1010100 9
1=
0?
#257
0=
#258
0&
b0001100 3
b1010011 9
1=
1?
#259
0=
#260
1&
b0001101 3
b1010010 9
1=
0?
#261
0=
#262
0&
b0001110 3
b1010001 9
1=
1?
#263
0=
#264
1&
b0001111 3
b1010000 9
1=
#265
0=
#266
b0010000 3
b1001111 9
1=
#267
0=
#268
b0010001 3
b1001110 9
1=
#269
0=
#270
b0010010 3
b1001101 9
1=
#271
0=
#272
b0010011 3
b1001100 9
1=
#273
0=
#274
b0010100 3
b1001011 9
1=
#275
0=
#276
b0010101 3
b1001010 9
1=
#277
0=
#278
b0010110 3
b1001001 9
1=
0?
#279
0=
#280
0&
b0010111 3
b1001000 9
1=
#281
0=
#282
b0011000 3
b1000111 9
1=
#283
0=
#284
b0011001 3
b1000110 9
1=
#285
0=
#286
b0011010 3
b1000101 9
1=
#287
0=
#288
b0011011 3
b1000100 9
1=
#289
0=
#290
b0011100 3
b1000011 9
1=
1?
#291
0=
#292
1&
b0011101 3
b1000010 9
1=
#293
0=
#294
b0011110 3
b1000001 9
1=
0?
#295
0=
#296
0&
b0011111 3
b1000000 9
1=
1?
#297
0=
#298
1&
b0100000 3
b0111111 9
1=
#299
0=
#300
b0100001 3
b0111110 9
1=
0?
#301
0=
#302
0&
b0100010 3
b0111101 9
1=
1?
#303
0=
#304
1&
b0100011 3
b0111100 9
1=
0?
#305
0=
#306
0&
b0100100 3
b0111011 9
1=
#307
0=
#308
b0100101 3
b0111010 9
1=
#309
0=
#310
b0100110 3
b0111001 9
1=
1?
#311
0=
#312
1&
b0100111 3
b0111000 9
1=
0?
#313
0=
#314
0&
b0101000 3
b0110111 9
1=
1?
#315
0=
#316
1&
b0101001 3
b0110110 9
1=
#317
0=
#318
b0101010 3
b0110101 9
1=
0?
#319
0=
#320
0&
b0101011 3
b0110100 9
1=
1?
#321
0=
#322
1&
b0101100 3
b0110011 9
1=
#323
0=
#324
b0101101 3
b0110010 9
1=
#325
0=
#326
b0101110 3
b0110001 9
1=
0?
#327
0=
#328
0&
b0101111 3
b0110000 9
1=
#329
0=
#330
b0110000 3
b0101111 9
1=
#331
0=
#332
b0110001 3
b0101110 9
1=
1?
#333
0=
#334
1&
b0110010 3
b0101101 9
1=
#335
0=
#336
b0110011 3
b0101100 9
1=
#337
0=
#338
b0110100 3
b0101011 9
1=
0?
#339
0=
#340
0&
1+
1-
b0000000 3
b0101010 9
1=
1?
#341
0=
#342
1&
1,
0-
b10 1
b0000001 3
b0101001 9
1=
#343
0=
#344
b10 2
b0000010 3
b0101000 9
1=
0?
#345
0=
#346
0&
b0000011 3
b0100111 9
1=
#347
0=
#348
b0000100 3
b0100110 9
1=
#349
0=
#350
b0000101 3
b0100101 9
1=
#351
0=
#352
b0000110 3
b0100100 9
1=
1?
#353
0=
#354
1&
b0000111 3
b0100011 9
1=
#355
0=
#356
b0001000 3
b0100010 9
1=
0?
#357
0=
#358
0&
b0001001 3
b0100001 9
1=
#359
0=
#360
b0001010 3
b0100000 9
1=
#361
0=
#362
b0001011 3
b0011111 9
1=
#363
0=
#364
b0001100 3
b0011110 9
1=
1?
#365
0=
#366
1&
b0001101 3
b0011101 9
1=
#367
0=
#368
b0001110 3
b0011100 9
1=
#369
0=
#370
b0001111 3
b0011011 9
1=
0?
#371
0=
#372
0&
b0010000 3
b0011010 9
1=
#373
0=
#374
b0010001 3
b0011001 9
1=
1?
#375
0=
#376
1&
b0010010 3
b0011000 9
1=
#377
0=
#378
b0010011 3
b0010111 9
1=
#379
0=
#380
b0010100 3
b0010110 9
1=
#381
0=
#382
b0010101 3
b0010101 9
1=
0?
#383
0=
#384
0&
b0010110 3
b0010100 9
1=
#385
0=
#386
b0010111 3
b0010011 9
1=
1?
#387
0=
#388
1&
b0011000 3
b0010010 9
1=
0?
#389
0=
#390
0&
b0011001 3
b0010001 9
1=
1?
#391
0=
#392
1&
b0011010 3
b0010000 9
1=
#393
0=
#394
b0011011 3
b0001111 9
1=
#395
0=
#396
b0011100 3
b0001110 9
1=
0?
#397
0=
#398
0&
b0011101 3
b0001101 9
1=
1?
#399
0=
#400
1&
b0011110 3
b0001100 9
1=
#401
0=
#402
b0011111 3
b0001011 9
1=
0?
#403
0=
#404
0&
b0100000 3
b0001010 9
1=
#405
0=
#406
b0100001 3
b0001001 9
1=
1?
#407
0=
#408
1&
b0100010 3
b0001000 9
1=
0?
#409
0=
#410
0&
b0100011 3
b0000111 9
1=
#411
0=
#412
b0100100 3
b0000110 9
1=
1?
#413
0=
#414
1&
b0100101 3
b0000101 9
1=
#415
0=
#416
b0100110 3
b0000100 9
1=
0?
#417
0=
#418
0&
b0100111 3
b0000011 9
1=
1?
#419
0=
#420
1&
b0101000 3
b0000010 9
1=
#421
0=
#422
b0101001 3
b0000001 9
1=
0?
#423
0=
#424
0&
b0101010 3
b0000000 9
1=
#425
0=
#426
b0101011 3
b1100111 9
b0010 ;
1=
#427
0=
#428
b0101100 3
b1100110 9
1=
1?
#429
0=
#430
1&
b0101101 3
b1100101 9
1=
#431
0=
#432
b0101110 3
b1100100 9
1=
0?
#433
0=
#434
0&
b0101111 3
b1100011 9
1=
#435
0=
#436
b0110000 3
b1100010 9
1=
#437
0=
#438
b0110001 3
b1100001 9
1=
1B
1G
b0001 H
#439
0=
#440
1/
b0110010 3
b1100000 9
1=
1?
#441
0=
#442
1&
b0110011 3
b1011111 9
1=
#443
0=
#444
b0110100 3
b1011110 9
1=
0?
#445
0=
#446
0&
0+
b0000000 3
b1011101 9
1=
#447
0=
#448
0,
b0000001 3
b1011100 9
1=
#449
0=
#450
b0000010 3
b1011011 9
1=
1?
#451
0=
#452
1&
b0000011 3
b1011010 9
1=
#453
0=
#454
b0000100 3
b1011001 9
1=
0?
#455
0=
#456
0&
b0000101 3
b1011000 9
1=
#457
0=
#458
b0000110 3
b1010111 9
1=
1?
#459
0=
#460
1&
b0000111 3
b1010110 9
1=
#461
0=
#462
b0001000 3
b1010101 9
1=
0?
#463
0=
#464
0&
b0001001 3
b1010100 9
1=
1?
#465
0=
#466
1&
b0001010 3
b1010011 9
1=
#467
0=
#468
b0001011 3
b1010010 9
1=
#469
0=
#470
b0001100 3
b1010001 9
1=
#471
0=
#472
b0001101 3
b1010000 9
1=
0?
#473
0=
#474
0&
b0001110 3
b1001111 9
1=
1?
#475
0=
#476
1&
b0001111 3
b1001110 9
1=
0?
#477
0=
#478
0&
b0010000 3
b1001101 9
1=
#479
0=
#480
b0010001 3
b1001100 9
1=
#481
0=
#482
b0010010 3
b1001011 9
1=
1?
#483
0=
#484
1&
b0010011 3
b1001010 9
1=
0?
#485
0=
#486
0&
b0010100 3
b1001001 9
1=
#487
0=
#488
b0010101 3
b1001000 9
1=
#489
0=
#490
b0010110 3
b1000111 9
1=
#491
0=
#492
b0010111 3
b1000110 9
1=
1?
#493
0=
#494
1&
b0011000 3
b1000101 9
1=
0?
#495
0=
#496
0&
b0011001 3
b1000100 9
1=
#497
0=
#498
b0011010 3
b1000011 9
1=
1?
#499
0=
#500
1&
b0011011 3
b1000010 9
1=
0?
#501
0=
#502
0&
b0011100 3
b1000001 9
1=
1?
#503
0=
#504
1&
b0011101 3
b1000000 9
1=
#505
0=
#506
b0011110 3
b0111111 9
1=
#507
0=
#508
b0011111 3
b0111110 9
1=
#509
0=
#510
b0100000 3
b0111101 9
1=
#511
0=
#512
b0100001 3
b0111100 9
1=
0?
#513
0=
#514
0&
b0100010 3
b0111011 9
1=
#515
0=
#516
b0100011 3
b0111010 9
1=
1?
#517
0=
#518
1&
b0100100 3
b0111001 9
1=
0?
#519
0=
#520
0&
b0100101 3
b0111000 9
1=
#521
0=
#522
b0100110 3
b0110111 9
1=
#523
0=
#524
b0100111 3
b0110110 9
1=
#525
0=
#526
b0101000 3
b0110101 9
1=
1?
#527
0=
#528
1&
b0101001 3
b0110100 9
1=
0?
#529
0=
#530
0&
b0101010 3
b0110011 9
1=
#531
0=
#532
b0101011 3
b0110010 9
1=
1?
#533
0=
#534
1&
b0101100 3
b0110001 9
1=
0?
#535
0=
#536
0&
b0101101 3
b0110000 9
1=
1?
#537
0=
#538
1&
b0101110 3
b0101111 9
1=
#539
0=
#540
b0101111 3
b0101110 9
1=
0?
#541
0=
#542
0&
b0110000 3
b0101101 9
1=
1?
#543
0=
#544
1&
b0110001 3
b0101100 9
1=
#545
0=
#546
b0110010 3
b0101011 9
1=
0?
#547
0=
#548
0&
b0110011 3
b0101010 9
1=
#549
0=
#550
b0110100 3
b0101001 9
1=
1?
#551
0=
#552
1&
1+
1-
b0000000 3
b0101000 9
1=
0?
#553
0=
#554
0&
1,
0-
b00000001 .
b0001 0
b0000001 3
b0100111 9
1=
1?
#555
0=
#556
1&
b0000010 3
b0100110 9
1=
#557
0=
#558
b0000011 3
b0100101 9
1=
0?
#559
0=
#560
0&
b0000100 3
b0100100 9
1=
1?
#561
0=
#562
1&
b0000101 3
b0100011 9
1=
0?
#563
0=
#564
0&
b0000110 3
b0100010 9
1=
#565
0=
#566
b0000111 3
b0100001 9
1=
#567
0=
#568
b0001000 3
b0100000 9
1=
1?
#569
0=
#570
1&
b0001001 3
b0011111 9
1=
#571
0=
#572
b0001010 3
b0011110 9
1=
#573
0=
#574
b0001011 3
b0011101 9
1=
#575
0=
#576
b0001100 3
b0011100 9
1=
0?
#577
0=
#578
0&
b0001101 3
b0011011 9
1=
1?
#579
0=
#580
1&
b0001110 3
b0011010 9
1=
#581
0=
#582
b0001111 3
b0011001 9
1=
0?
#583
0=
#584
0&
b0010000 3
b0011000 9
1=
1?
#585
0=
#586
1&
b0010001 3
b0010111 9
1=
0?
#587
0=
#588
0&
b0010010 3
b0010110 9
1=
1?
#589
0=
#590
1&
b0010011 3
b0010101 9
1=
#591
0=
#592
b0010100 3
b0010100 9
1=
0?
#593
0=
#594
0&
b0010101 3
b0010011 9
1=
#595
0=
#596
b0010110 3
b0010010 9
1=
1?
#597
0=
#598
1&
b0010111 3
b0010001 9
1=
#599
0=
#600
b0011000 3
b0010000 9
1=
0?
#601
0=
#602
0&
b0011001 3
b0001111 9
1=
1?
#603
0=
#604
1&
b0011010 3
b0001110 9
1=
0?
#605
0=
#606
0&
b0011011 3
b0001101 9
1=
1?
#607
0=
#608
1&
b0011100 3
b0001100 9
1=
0?
#609
0=
#610
0&
b0011101 3
b0001011 9
1=
#611
0=
#612
b0011110 3
b0001010 9
1=
#613
0=
#614
b0011111 3
b0001001 9
1=
#615
0=
#616
b0100000 3
b0001000 9
1=
#617
0=
#618
b0100001 3
b0000111 9
1=
1?
#619
0=
#620
1&
b0100010 3
b0000110 9
1=
#621
0=
#622
b0100011 3
b0000101 9
1=
#623
0=
#624
b0100100 3
b0000100 9
1=
#625
0=
#626
b0100101 3
b0000011 9
1=
#627
0=
#628
b0100110 3
b0000010 9
1=
#629
0=
#630
b0100111 3
b0000001 9
1=
0?
#631
0=
#632
0&
b0101000 3
b0000000 9
1=
#633
0=
#634
b0101001 3
b1100111 9
b0011 ;
1=
#635
0=
#636
b0101010 3
b1100110 9
1=
1?
#637
0=
#638
1&
b0101011 3
b1100101 9
1=
0?
#639
0=
#640
0&
b0101100 3
b1100100 9
1=
1?
#641
0=
#642
1&
b0101101 3
b1100011 9
1=
#643
0=
#644
b0101110 3
b1100010 9
1=
0?
#645
0=
#646
0&
b0101111 3
b1100001 9
1=
1?
#647
0=
#648
1&
b0110000 3
b1100000 9
1=
0B
b0010 H
#649
0=
1I
#650
0/
b0110001 3
b1011111 9
1=
0?
0I
#651
0=
#652
0&
b0110010 3
b1011110 9
1=
#653
0=
#654
b0110011 3
b1011101 9
1=
1?
#655
0=
#656
1&
b0110100 3
b1011100 9
1=
0?
#657
0=
#658
0&
0+
b0000000 3
b1011011 9
1=
#659
0=
#660
0,
b0000001 3
b1011010 9
1=
#661
0=
#662
b0000010 3
b1011001 9
1=
#663
0=
#664
b0000011 3
b1011000 9
1=
1?
#665
0=
#666
1&
b0000100 3
b1010111 9
1=
0?
#667
0=
#668
0&
b0000101 3
b1010110 9
1=
1?
#669
0=
#670
1&
b0000110 3
b1010101 9
1=
#671
0=
#672
b0000111 3
b1010100 9
1=
#673
0=
#674
b0001000 3
b1010011 9
1=
#675
0=
#676
b0001001 3
b1010010 9
1=
0?
#677
0=
#678
0&
b0001010 3
b1010001 9
1=
1?
#679
0=
#680
1&
b0001011 3
b1010000 9
1=
#681
0=
#682
b0001100 3
b1001111 9
1=
#683
0=
#684
b0001101 3
b1001110 9
1=
0?
#685
0=
#686
0&
b0001110 3
b1001101 9
1=
#687
0=
#688
b0001111 3
b1001100 9
1=
#689
0=
#690
b0010000 3
b1001011 9
1=
1?
#691
0=
#692
1&
b0010001 3
b1001010 9
1=
#693
0=
#694
b0010010 3
b1001001 9
1=
0?
#695
0=
#696
0&
b0010011 3
b1001000 9
1=
1?
#697
0=
#698
1&
b0010100 3
b1000111 9
1=
0?
#699
0=
#700
0&
b0010101 3
b1000110 9
1=
1?
#701
0=
#702
1&
b0010110 3
b1000101 9
1=
#703
0=
#704
b0010111 3
b1000100 9
1=
#705
0=
#706
b0011000 3
b1000011 9
1=
#707
0=
#708
b0011001 3
b1000010 9
1=
0?
#709
0=
#710
0&
b0011010 3
b1000001 9
1=
#711
0=
#712
b0011011 3
b1000000 9
1=
1?
#713
0=
#714
1&
b0011100 3
b0111111 9
1=
0?
#715
0=
#716
0&
b0011101 3
b0111110 9
1=
1?
#717
0=
#718
1&
b0011110 3
b0111101 9
1=
0?
#719
0=
#720
0&
b0011111 3
b0111100 9
1=
#721
0=
#722
b0100000 3
b0111011 9
1=
1?
#723
0=
#724
1&
b0100001 3
b0111010 9
1=
0?
#725
0=
#726
0&
b0100010 3
b0111001 9
1=
#727
0=
#728
b0100011 3
b0111000 9
1=
#729
0=
#730
b0100100 3
b0110111 9
1=
#731
0=
#732
b0100101 3
b0110110 9
1=
1?
#733
0=
#734
1&
b0100110 3
b0110101 9
1=
#735
0=
#736
b0100111 3
b0110100 9
1=
#737
0=
#738
b0101000 3
b0110011 9
1=
#739
0=
#740
b0101001 3
b0110010 9
1=
0?
#741
0=
#742
0&
b0101010 3
b0110001 9
1=
#743
0=
#744
b0101011 3
b0110000 9
1=
#745
0=
#746
b0101100 3
b0101111 9
1=
#747
0=
#748
b0101101 3
b0101110 9
1=
1?
#749
0=
#750
1&
b0101110 3
b0101101 9
1=
0?
#751
0=
#752
0&
b0101111 3
b0101100 9
1=
1?
#753
0=
#754
1&
b0110000 3
b0101011 9
1=
0?
#755
0=
#756
0&
b0110001 3
b0101010 9
1=
1?
#757
0=
#758
1&
b0110010 3
b0101001 9
1=
0?
#759
0=
#760
0&
b0110011 3
b0101000 9
1=
#761
0=
#762
b0110100 3
b0100111 9
1=
#763
0=
#764
1+
1-
b0000000 3
b0100110 9
1=
1?
#765
0=
#766
1&
1,
0-
b0010 0
b0000001 3
b0100101 9
1=
0?
#767
0=
#768
0&
b0000010 3
b0100100 9
1=
1?
#769
0=
#770
1&
b0000011 3
b0100011 9
1=
#771
0=
#772
b0000100 3
b0100010 9
1=
0?
#773
0=
#774
0&
b0000101 3
b0100001 9
1=
1?
#775
0=
#776
1&
b0000110 3
b0100000 9
1=
0?
#777
0=
#778
0&
b0000111 3
b0011111 9
1=
#779
0=
#780
b0001000 3
b0011110 9
1=
1?
#781
0=
#782
1&
b0001001 3
b0011101 9
1=
0?
#783
0=
#784
0&
b0001010 3
b0011100 9
1=
1?
#785
0=
#786
1&
b0001011 3
b0011011 9
1=
#787
0=
#788
b0001100 3
b0011010 9
1=
0?
#789
0=
#790
0&
b0001101 3
b0011001 9
1=
1?
#791
0=
#792
1&
b0001110 3
b0011000 9
1=
#793
0=
#794
b0001111 3
b0010111 9
1=
0?
#795
0=
#796
0&
b0010000 3
b0010110 9
1=
#797
0=
#798
b0010001 3
b0010101 9
1=
1?
#799
0=
#800
1&
b0010010 3
b0010100 9
1=
#801
0=
#802
b0010011 3
b0010011 9
1=
0?
#803
0=
#804
0&
b0010100 3
b0010010 9
1=
1?
#805
0=
#806
1&
b0010101 3
b0010001 9
1=
0?
#807
0=
#808
0&
b0010110 3
b0010000 9
1=
#809
0=
#810
b0010111 3
b0001111 9
1=
#811
0=
#812
b0011000 3
b0001110 9
1=
#813
0=
#814
b0011001 3
b0001101 9
1=
1?
#815
0=
#816
1&
b0011010 3
b0001100 9
1=
0?
#817
0=
#818
0&
b0011011 3
b0001011 9
1=
1?
#819
0=
#820
1&
b0011100 3
b0001010 9
1=
0?
#821
0=
#822
0&
b0011101 3
b0001001 9
1=
1?
#823
0=
#824
1&
b0011110 3
b0001000 9
1=
#825
0=
#826
b0011111 3
b0000111 9
1=
#827
0=
#828
b0100000 3
b0000110 9
1=
#829
0=
#830
b0100001 3
b0000101 9
1=
#831
0=
#832
b0100010 3
b0000100 9
1=
#833
0=
#834
b0100011 3
b0000011 9
1=
#835
0=
#836
b0100100 3
b0000010 9
1=
0?
#837
0=
#838
0&
b0100101 3
b0000001 9
1=
1?
#839
0=
#840
1&
b0100110 3
b0000000 9
1=
#841
0=
#842
b0100111 3
b1100111 9
b0100 ;
1=
#843
0=
#844
b0101000 3
b1100110 9
1=
#845
0=
#846
b0101001 3
b1100101 9
1=
#847
0=
#848
b0101010 3
b1100100 9
1=
0?
#849
0=
#850
0&
b0101011 3
b1100011 9
1=
#851
0=
#852
b0101100 3
b1100010 9
1=
#853
0=
#854
b0101101 3
b1100001 9
1=
#855
0=
#856
b0101110 3
b1100000 9
1=
#857
0=
#858
b0101111 3
b1011111 9
1=
1?
b0011 H
#859
0=
#860
1&
b0110000 3
b1011110 9
1=
#861
0=
#862
b0110001 3
b1011101 9
1=
#863
0=
#864
b0110010 3
b1011100 9
1=
#865
0=
#866
b0110011 3
b1011011 9
1=
0?
#867
0=
#868
0&
b0110100 3
b1011010 9
1=
1?
#869
0=
#870
1&
0+
b0000000 3
b1011001 9
1=
0?
#871
0=
#872
0&
0,
b0000001 3
b1011000 9
1=
1?
#873
0=
#874
1&
b0000010 3
b1010111 9
1=
0?
#875
0=
#876
0&
b0000011 3
b1010110 9
1=
1?
#877
0=
#878
1&
b0000100 3
b1010101 9
1=
#879
0=
#880
b0000101 3
b1010100 9
1=
#881
0=
#882
b0000110 3
b1010011 9
1=
#883
0=
#884
b0000111 3
b1010010 9
1=
0?
#885
0=
#886
0&
b0001000 3
b1010001 9
1=
1?
#887
0=
#888
1&
b0001001 3
b1010000 9
1=
#889
0=
#890
b0001010 3
b1001111 9
1=
#891
0=
#892
b0001011 3
b1001110 9
1=
0?
#893
0=
#894
0&
b0001100 3
b1001101 9
1=
#895
0=
#896
b0001101 3
b1001100 9
1=
1?
#897
0=
#898
1&
b0001110 3
b1001011 9
1=
0?
#899
0=
#900
0&
b0001111 3
b1001010 9
1=
1?
#901
0=
#902
1&
b0010000 3
b1001001 9
1=
0?
#903
0=
#904
0&
b0010001 3
b1001000 9
1=
1?
#905
0=
#906
1&
b0010010 3
b1000111 9
1=
0?
#907
0=
#908
0&
b0010011 3
b1000110 9
1=
1?
#909
0=
#910
1&
b0010100 3
b1000101 9
1=
#911
0=
#912
b0010101 3
b1000100 9
1=
0?
#913
0=
#914
0&
b0010110 3
b1000011 9
1=
#915
0=
#916
b0010111 3
b1000010 9
1=
1?
#917
0=
#918
1&
b0011000 3
b1000001 9
1=
0?
#919
0=
#920
0&
b0011001 3
b1000000 9
1=
1?
#921
0=
#922
1&
b0011010 3
b0111111 9
1=
0?
#923
0=
#924
0&
b0011011 3
b0111110 9
1=
#925
0=
#926
b0011100 3
b0111101 9
1=
#927
0=
#928
b0011101 3
b0111100 9
1=
1?
#929
0=
#930
1&
b0011110 3
b0111011 9
1=
#931
0=
