library/communication/wishbone/waveform.vcd
$version Generated by VerilatedVcd $end
$date Thu Mar 24 16:11:14 2022 $end
$timescale 1ps $end

 $scope module TOP $end
  $var wire  1 y IO_UART_RX $end
  $var wire  1 z IO_UART_TX $end
  $var wire  1 x Usr_button $end
  $var wire  1 w i_clk_12Mhz $end
  $var wire  8 { o_LEDS [7:0] $end
  $scope module wishbone_top $end
   $var wire  1 - Decoder_o_stb $end
   $var wire 34 . Decoder_o_word [33:0] $end
   $var wire  1 y IO_UART_RX $end
   $var wire  1 z IO_UART_TX $end
   $var wire  8 % UART_DECODER_i_data_in [7:0] $end
   $var wire  1 !! UART_DECODER_i_data_valid $end
   $var wire  1 + UART_DECODER_i_stb $end
   $var wire  1 , UART_DECODER_i_stb_old $end
   $var wire  1 0 UART_DECODER_i_stb_rise $end
   $var wire  8 % UART_WORD_RX [7:0] $end
   $var wire  8 & UART_WORD_TX [7:0] $end
   $var wire  1 x Usr_button $end
   $var wire  1 w i_clk_12Mhz $end
   $var wire  1 ~ i_reset $end
   $var wire  1 : i_wb_ack $end
   $var wire 32 ; i_wb_data [31:0] $end
   $var wire  1 ~ i_wb_err $end
   $var wire  1 9 i_wb_stall $end
   $var wire  1 * in_RXNE_clear $end
   $var wire  8 { o_LEDS [7:0] $end
   $var wire  8 < o_LEDS_dummy [7:0] $end
   $var wire  1 1 o_cmd_busy $end
   $var wire  1 #! o_dw_busy $end
   $var wire  1 2 o_rsp_stb $end
   $var wire 34 3 o_rsp_word [33:0] $end
   $var wire 30 7 o_wb_addr [29:0] $end
   $var wire  1 1 o_wb_cyc $end
   $var wire 32 8 o_wb_data [31:0] $end
   $var wire  4 "! o_wb_sel [3:0] $end
   $var wire  1 5 o_wb_stb $end
   $var wire  1 6 o_wb_we $end
   $var wire  1 } uart_Rx_stb $end
   $var wire  1 ' uart_busy $end
   $var wire  1 ( uart_out_RXNE $end
   $var wire  1 ~ uart_out_Rx_ORE $end
   $var wire  1 ) uart_stb $end
   $scope module uartCoder $end
    $var wire  1 3! TxBusy_old $end
    $var wire  1 4! TxBusy_rise $end
    $var wire  1 u TxStart_r $end
    $var wire  1 ~ TxStart_r_new $end
    $var wire  4 v cnt_wait [3:0] $end
    $var wire  8 0! from_Coder [7:0] $end
    $var wire  1 ' i_TxBusy $end
    $var wire  1 w i_clk $end
    $var wire  1 ~ i_reset $end
    $var wire  1 2 i_stb $end
    $var wire  1 q i_stb_old $end
    $var wire  1 p i_stb_rise $end
    $var wire  1 6 i_wb_we $end
    $var wire 34 3 i_word [33:0] $end
    $var wire  8 { o_LEDS [7:0] $end
    $var wire  1 ) o_TxStart $end
    $var wire  1 #! o_dw_busy $end
    $var wire  8 & out_char [7:0] $end
    $var wire 34 1! r_word [33:0] $end
    $var wire 34 r r_word_test [33:0] $end
    $var wire  4 o to_Coder [3:0] $end
    $var wire  3 t transmit_counter [2:0] $end
    $var wire  1 ~ transmit_on_vym $end
   $upscope $end
   $scope module uartDecoder $end
    $var wire  1 Z cmd_loaded $end
    $var wire  3 Y command [2:0] $end
    $var wire  1 w i_clk $end
    $var wire  8 % i_data_in [7:0] $end
    $var wire  8 [ i_data_old_in [7:0] $end
    $var wire  1 !! i_data_valid $end
    $var wire  1 -! i_data_valid_old $end
    $var wire  1 .! i_data_valid_rise $end
    $var wire  1 0 i_stb $end
    $var wire  1 V i_stb_old $end
    $var wire  5 T o_bits [4:0] $end
    $var wire  5 U o_bits_old [4:0] $end
    $var wire  1 - o_stb $end
    $var wire 34 . o_word [33:0] $end
    $var wire 34 # o_word_new [33:0] $end
    $var wire  1 S r_i_data_valid_rise $end
    $var wire 34 W r_word [33:0] $end
    $var wire 34 \ testovaci [33:0] $end
   $upscope $end
   $scope module uartTop $end
    $var wire 14 $! KBAUD [13:0] $end
    $var wire  1 %! Rx_busy $end
    $var wire  1 @ TxComplete $end
    $var wire  1 B TxCompleteRise $end
    $var wire  1 A TxComplete_old $end
    $var wire  1 > Tx_start $end
    $var wire  1 w clk $end
    $var wire  1 * in_RXNE_clear $end
    $var wire  1 y in_signal $end
    $var wire  1 ) in_valid $end
    $var wire  1 ? in_valid_old $end
    $var wire  8 & in_w_data [7:0] $end
    $var wire  1 ' out_BUSY $end
    $var wire  1 ( out_RXNE $end
    $var wire  1 ~ out_Rx_ORE $end
    $var wire  1 z out_signal $end
    $var wire  8 % out_word [7:0] $end
    $var wire  1 ( r_RXNE $end
    $var wire  1 C r_RXNE_clear_old $end
    $var wire  8 % r_Rx_DataByte [7:0] $end
    $var wire  8 F r_Rx_data [7:0] $end
    $var wire  1 E r_Rx_done $end
    $var wire  8 = r_Tx_DataByte [7:0] $end
    $var wire  1 ' r_Tx_busy $end
    $var wire  1 > r_Tx_start $end
    $var wire  1 ~ r_out_Rx_ORE $end
    $var wire  1 D w_RXNE_clear_rise $end
    $scope module uartRx $end
     $var wire 32 *! CNT_BITS [31:0] $end
     $var wire 14 $! KBAUD [13:0] $end
     $var wire 32 +! KBAUD_half [31:0] $end
     $var wire  1 E Rx_done $end
     $var wire  1 I Rx_done_nTmp $end
     $var wire  1 J Rx_done_nTmp_old $end
     $var wire  1 ~ Rx_start $end
     $var wire  8 H UR_data [7:0] $end
     $var wire 14 K baud_cnt [13:0] $end
     $var wire  1 %! busy $end
     $var wire  1 w clk $end
     $var wire  1 | data_IN_falEdge $end
     $var wire  1 G data_IN_old $end
     $var wire  1 y in_data $end
     $var wire  8 F out_data [7:0] $end
     $var wire  1 ,! r_busy $end
     $var wire  4 M r_data_cnt [3:0] $end
     $var wire  8 F r_out_data [7:0] $end
     $var wire 32 (! s_DATA [31:0] $end
     $var wire 32 &! s_IDLE [31:0] $end
     $var wire 32 '! s_START [31:0] $end
     $var wire 32 )! s_STOP [31:0] $end
     $var wire  2 L state [1:0] $end
    $upscope $end
    $scope module uartTx $end
     $var wire  8 P Data [7:0] $end
     $var wire 14 $! KBAUD [13:0] $end
     $var wire 14 O baud_cnt [13:0] $end
     $var wire  1 w clk $end
     $var wire  8 = in_DataByte [7:0] $end
     $var wire  1 > in_Start $end
     $var wire  1 z out_DataBit $end
     $var wire  1 @ out_fComplete $end
     $var wire  4 Q r_data_cnt [3:0] $end
     $var wire  1 R r_out_dataBit $end
     $var wire  1 @ r_out_fComplete $end
     $var wire 32 '! s_DATA [31:0] $end
     $var wire 32 &! s_START [31:0] $end
     $var wire 32 (! s_STOP [31:0] $end
     $var wire  2 N state [1:0] $end
    $upscope $end
   $upscope $end
   $scope module wb_master $end
    $var wire  1 x Usr_button $end
    $var wire  1 /! bude_inc $end
    $var wire  1 w i_clk $end
    $var wire  1 _ i_cmd_addr $end
    $var wire  1 b i_cmd_bus $end
    $var wire  1 a i_cmd_rd $end
    $var wire  1 - i_cmd_stb $end
    $var wire  1 e i_cmd_stb_old $end
    $var wire 34 . i_cmd_word [33:0] $end
    $var wire 34 c i_cmd_word_old [33:0] $end
    $var wire  1 ` i_cmd_wr $end
    $var wire  1 ~ i_reset $end
    $var wire  1 : i_wb_ack $end
    $var wire 32 ; i_wb_data [31:0] $end
    $var wire  1 ~ i_wb_err $end
    $var wire  1 9 i_wb_stall $end
    $var wire  1 ~ inc $end
    $var wire  1 ^ newaddr $end
    $var wire  8 < o_LEDS [7:0] $end
    $var wire  1 1 o_cmd_busy $end
    $var wire  1 2 o_rsp_stb $end
    $var wire 34 3 o_rsp_word [33:0] $end
    $var wire 30 7 o_wb_addr [29:0] $end
    $var wire  1 1 o_wb_cyc $end
    $var wire 32 8 o_wb_data [31:0] $end
    $var wire  4 "! o_wb_sel [3:0] $end
    $var wire  1 5 o_wb_stb $end
    $var wire  1 6 o_wb_we $end
   $upscope $end
   $scope module wb_slave $end
    $var wire  8 0! LEDS [7:0] $end
    $var wire  1 w i_clk $end
    $var wire 30 7 i_wb_addr [29:0] $end
    $var wire  1 1 i_wb_cyc $end
    $var wire 32 8 i_wb_data [31:0] $end
    $var wire  4 "! i_wb_sel [3:0] $end
    $var wire  1 5 i_wb_stb $end
    $var wire  1 6 i_wb_we $end
    $var wire 16 f memory[0] [15:0] $end
    $var wire 16 g memory[1] [15:0] $end
    $var wire 16 h memory[2] [15:0] $end
    $var wire 16 i memory[3] [15:0] $end
    $var wire 16 j memory[4] [15:0] $end
    $var wire 16 k memory[5] [15:0] $end
    $var wire 16 l memory[6] [15:0] $end
    $var wire 16 m memory[7] [15:0] $end
    $var wire 16 n nevim [15:0] $end
    $var wire  8 < o_LEDS [7:0] $end
    $var wire  1 : o_wb_ack $end
    $var wire 32 ; o_wb_data [31:0] $end
    $var wire  1 ~ o_wb_err $end
    $var wire  1 9 o_wb_stall $end
   $upscope $end
  $upscope $end
 $upscope $end
$enddefinitions $end


#0
b1110010111111111110010100101010100 #
b00000000 %
b01111100 &
0'
0(
0)
0*
0+
0,
0-
b1100000000000000000000000000000000 .
00
01
02
b1100000000000000000000000000000000 3
05
06
b000000000000000000000000000000 7
b00000000000000000000000000000000 8
09
1:
b00110001000000010101110000001010 ;
b01111000 <
b11110111 =
1>
0?
1@
1A
0B
0C
0D
0E
b00000000 F
1G
b00000000 H
1I
1J
b00000000000000 K
b00 L
b0000 M
b00 N
b00000000000000 O
b10000100 P
b0000 Q
0R
1S
b10111 T
b11011 U
0V
b0000000000000000000000000000000000 W
b000 Y
0Z
b10000000 [
b0000000000000000000000000000000000 \
0^
0_
0`
0a
0b
b0000000000000000000000000000000000 c
0e
b0000000000000000 f
b0000000000000001 g
b0000000000000010 h
b0000000000000011 i
b0000000000000100 j
b0000000000000101 k
b0000000000000110 l
b0000000000000111 m
b1001101101100110 n
b0000 o
0p
0q
b0000000000000000000000000000000000 r
b000 t
0u
b0000 v
1w
0x
0y
0z
b00000000 {
1|
0}
0~
0!!
b1111 "!
1#!
b10100010110000 $!
1%!
b00000000000000000000000000000000 &!
b00000000000000000000000000000001 '!
b00000000000000000000000000000010 (!
b00000000000000000000000000000011 )!
b00000000000000000000000000001110 *!
b00000000000000000001010001011000 +!
0,!
0-!
0.!
1/!
b00000000 0!
b1000001010011001101101100101001101 1!
13!
04!
#1
0w
#2
b00110000 &
b0010000000000000000000000000000000 3
19
0:
b00000000 <
0G
0I
b01010001010111 K
b01 L
1R
0S
b11111 T
b10111 U
b00000000 [
b1100000000000000000000000000000000 c
b0000000000000100 n
b1111 v
1w
1z
0|
#3
0w
#4
0J
b01010001010110 K
b11111 U
b1110 v
1w
#5
0w
#6
b01010001010101 K
b1101 v
1w
#7
0w
#8
b01010001010100 K
b1100 v
1w
#9
0w
#10
b01010001010011 K
b1011 v
1w
#11
0w
#12
b01010001010010 K
b1010 v
1w
#13
0w
#14
b01010001010001 K
b1001 v
1w
#15
0w
#16
b01010001010000 K
b1000 v
1w
#17
0w
#18
b01010001001111 K
b0111 v
1w
#19
0w
#20
b01010001001110 K
b0110 v
1w
#21
0w
#22
b01010001001101 K
b0101 v
1w
#23
0w
#24
b01010001001100 K
b0100 v
1w
#25
0w
#26
b01010001001011 K
b0011 v
1w
#27
0w
#28
b01010001001010 K
b0010 v
1w
#29
0w
#30
b01010001001001 K
b0001 v
1w
#31
0w
#32
b01010001001000 K
b0000 v
1w
#33
0w
#34
b01010001000111 K
b1111 v
1w
#35
0w
#36
b01010001000110 K
b1110 v
1w
#37
0w
#38
b01010001000101 K
b1101 v
1w
#39
0w
#40
b01010001000100 K
b1100 v
1w
#41
0w
#42
b01010001000011 K
b1011 v
1w
#43
0w
#44
b01010001000010 K
b1010 v
1w
#45
0w
#46
b01010001000001 K
b1001 v
1w
#47
0w
#48
b01010001000000 K
b1000 v
1w
#49
0w
#50
b01010000111111 K
b0111 v
1w
#51
0w
#52
b01010000111110 K
b0110 v
1w
#53
0w
#54
b01010000111101 K
b0101 v
1w
#55
0w
#56
b01010000111100 K
b0100 v
1w
#57
0w
#58
b01010000111011 K
b0011 v
1w
#59
0w
#60
b01010000111010 K
b0010 v
1w
#61
0w
#62
b01010000111001 K
b0001 v
1w
#63
0w
#64
b01010000111000 K
b0000 v
1w
#65
0w
#66
b01010000110111 K
b1111 v
1w
#67
0w
#68
b01010000110110 K
b1110 v
1w
#69
0w
#70
b01010000110101 K
b1101 v
1w
#71
0w
#72
b01010000110100 K
b1100 v
1w
#73
0w
#74
b01010000110011 K
b1011 v
1w
#75
0w
#76
b01010000110010 K
b1010 v
1w
#77
0w
#78
b01010000110001 K
b1001 v
1w
#79
0w
#80
b01010000110000 K
b1000 v
1w
#81
0w
#82
b01010000101111 K
b0111 v
1w
#83
0w
#84
b01010000101110 K
b0110 v
1w
#85
0w
#86
b01010000101101 K
b0101 v
1w
#87
0w
#88
b01010000101100 K
b0100 v
1w
#89
0w
#90
b01010000101011 K
b0011 v
1w
#91
0w
#92
b01010000101010 K
b0010 v
1w
#93
0w
#94
b01010000101001 K
b0001 v
1w
#95
0w
#96
b01010000101000 K
b0000 v
1w
#97
0w
#98
b01010000100111 K
b1111 v
1w
#99
0w
#100
b01010000100110 K
b1110 v
1w
#101
0w
#102
b01010000100101 K
b1101 v
1w
#103
0w
#104
b01010000100100 K
b1100 v
1w
#105
0w
#106
b01010000100011 K
b1011 v
1w
#107
0w
#108
b01010000100010 K
b1010 v
1w
#109
0w
#110
b01010000100001 K
b1001 v
1w
#111
0w
#112
b01010000100000 K
b1000 v
1w
#113
0w
#114
b01010000011111 K
b0111 v
1w
#115
0w
#116
b01010000011110 K
b0110 v
1w
#117
0w
#118
b01010000011101 K
b0101 v
1w
#119
0w
#120
b01010000011100 K
b0100 v
1w
#121
0w
#122
b01010000011011 K
b0011 v
1w
#123
0w
#124
b01010000011010 K
b0010 v
1w
#125
0w
#126
b01010000011001 K
b0001 v
1w
#127
0w
#128
b01010000011000 K
b0000 v
1w
#129
0w
#130
b01010000010111 K
b1111 v
1w
#131
0w
#132
b01010000010110 K
b1110 v
1w
#133
0w
#134
b01010000010101 K
b1101 v
1w
#135
0w
#136
b01010000010100 K
b1100 v
1w
#137
0w
#138
b01010000010011 K
b1011 v
1w
#139
0w
#140
b01010000010010 K
b1010 v
1w
#141
0w
#142
b01010000010001 K
b1001 v
1w
#143
0w
#144
b01010000010000 K
b1000 v
1w
#145
0w
#146
b01010000001111 K
b0111 v
1w
#147
0w
#148
b01010000001110 K
b0110 v
1w
#149
0w
#150
b01010000001101 K
b0101 v
1w
#151
0w
#152
b01010000001100 K
b0100 v
1w
#153
0w
#154
b01010000001011 K
b0011 v
1w
#155
0w
#156
b01010000001010 K
b0010 v
1w
#157
0w
#158
b01010000001001 K
b0001 v
1w
#159
0w
#160
b01010000001000 K
b0000 v
1w
#161
0w
#162
b01010000000111 K
b1111 v
1w
#163
0w
#164
b01010000000110 K
b1110 v
1w
#165
0w
#166
b01010000000101 K
b1101 v
1w
#167
0w
#168
b01010000000100 K
b1100 v
1w
#169
0w
#170
b01010000000011 K
b1011 v
1w
#171
0w
#172
b01010000000010 K
b1010 v
1w
#173
0w
#174
b01010000000001 K
b1001 v
1w
#175
0w
#176
b01010000000000 K
b1000 v
1w
#177
0w
#178
b01001111111111 K
b0111 v
1w
#179
0w
#180
b01001111111110 K
b0110 v
1w
#181
0w
#182
b01001111111101 K
b0101 v
1w
#183
0w
#184
b01001111111100 K
b0100 v
1w
#185
0w
#186
b01001111111011 K
b0011 v
1w
#187
0w
#188
b01001111111010 K
b0010 v
1w
#189
0w
#190
b01001111111001 K
b0001 v
1w
#191
0w
#192
b01001111111000 K
b0000 v
1w
#193
0w
#194
b01001111110111 K
b1111 v
1w
#195
0w
#196
b01001111110110 K
b1110 v
1w
#197
0w
#198
b01001111110101 K
b1101 v
1w
#199
0w
#200
b01001111110100 K
b1100 v
1w
#201
0w
#202
b01001111110011 K
b1011 v
1w
#203
0w
#204
b01001111110010 K
b1010 v
1w
#205
0w
#206
b01001111110001 K
b1001 v
1w
#207
0w
#208
b01001111110000 K
b1000 v
1w
#209
0w
#210
b01001111101111 K
b0111 v
1w
#211
0w
#212
b01001111101110 K
b0110 v
1w
#213
0w
#214
b01001111101101 K
b0101 v
1w
#215
0w
#216
b01001111101100 K
b0100 v
1w
#217
0w
#218
b01001111101011 K
b0011 v
1w
#219
0w
#220
b01001111101010 K
b0010 v
1w
#221
0w
#222
b01001111101001 K
b0001 v
1w
#223
0w
#224
b01001111101000 K
b0000 v
1w
#225
0w
#226
b01001111100111 K
b1111 v
1w
#227
0w
#228
b01001111100110 K
b1110 v
1w
#229
0w
#230
b01001111100101 K
b1101 v
1w
#231
0w
#232
b01001111100100 K
b1100 v
1w
#233
0w
#234
b01001111100011 K
b1011 v
1w
#235
0w
#236
b01001111100010 K
b1010 v
1w
#237
0w
#238
b01001111100001 K
b1001 v
1w
#239
0w
#240
b01001111100000 K
b1000 v
1w
#241
0w
#242
b01001111011111 K
b0111 v
1w
#243
0w
#244
b01001111011110 K
b0110 v
1w
#245
0w
#246
b01001111011101 K
b0101 v
1w
#247
0w
#248
b01001111011100 K
b0100 v
1w
#249
0w
#250
b01001111011011 K
b0011 v
1w
#251
0w
#252
b01001111011010 K
b0010 v
1w
#253
0w
#254
b01001111011001 K
b0001 v
1w
#255
0w
#256
b01001111011000 K
b0000 v
1w
#257
0w
#258
b01001111010111 K
b1111 v
1w
#259
0w
#260
b01001111010110 K
b1110 v
1w
#261
0w
#262
b01001111010101 K
b1101 v
1w
#263
0w
#264
b01001111010100 K
b1100 v
1w
#265
0w
#266
b01001111010011 K
b1011 v
1w
#267
0w
#268
b01001111010010 K
b1010 v
1w
#269
0w
#270
b01001111010001 K
b1001 v
1w
#271
0w
#272
b01001111010000 K
b1000 v
1w
#273
0w
#274
b01001111001111 K
b0111 v
1w
#275
0w
#276
b01001111001110 K
b0110 v
1w
#277
0w
#278
b01001111001101 K
b0101 v
1w
#279
0w
#280
b01001111001100 K
b0100 v
1w
#281
0w
#282
b01001111001011 K
b0011 v
1w
#283
0w
#284
b01001111001010 K
b0010 v
1w
#285
0w
#286
b01001111001001 K
b0001 v
1w
#287
0w
#288
b01001111001000 K
b0000 v
1w
#289
0w
#290
b01001111000111 K
b1111 v
1w
#291
0w
#292
b01001111000110 K
b1110 v
1w
#293
0w
#294
b01001111000101 K
b1101 v
1w
#295
0w
#296
b01001111000100 K
b1100 v
1w
#297
0w
#298
b01001111000011 K
b1011 v
1w
#299
0w
#300
b01001111000010 K
b1010 v
1w
#301
0w
#302
b01001111000001 K
b1001 v
1w
#303
0w
#304
b01001111000000 K
b1000 v
1w
#305
0w
#306
b01001110111111 K
b0111 v
1w
#307
0w
#308
b01001110111110 K
b0110 v
1w
#309
0w
#310
b01001110111101 K
b0101 v
1w
#311
0w
#312
b01001110111100 K
b0100 v
1w
#313
0w
#314
b01001110111011 K
b0011 v
1w
#315
0w
#316
b01001110111010 K
b0010 v
1w
#317
0w
#318
b01001110111001 K
b0001 v
1w
#319
0w
#320
b01001110111000 K
b0000 v
1w
#321
0w
#322
b01001110110111 K
b1111 v
1w
#323
0w
#324
b01001110110110 K
b1110 v
1w
#325
0w
#326
b01001110110101 K
b1101 v
1w
#327
0w
#328
b01001110110100 K
b1100 v
1w
#329
0w
#330
b01001110110011 K
b1011 v
1w
#331
0w
#332
b01001110110010 K
b1010 v
1w
#333
0w
#334
b01001110110001 K
b1001 v
1w
#335
0w
#336
b01001110110000 K
b1000 v
1w
#337
0w
#338
b01001110101111 K
b0111 v
1w
#339
0w
#340
b01001110101110 K
b0110 v
1w
#341
0w
#342
b01001110101101 K
b0101 v
1w
#343
0w
#344
b01001110101100 K
b0100 v
1w
#345
0w
#346
b01001110101011 K
b0011 v
1w
#347
0w
#348
b01001110101010 K
b0010 v
1w
#349
0w
#350
b01001110101001 K
b0001 v
1w
#351
0w
#352
b01001110101000 K
b0000 v
1w
#353
0w
#354
b01001110100111 K
b1111 v
1w
#355
0w
#356
b01001110100110 K
b1110 v
1w
#357
0w
#358
b01001110100101 K
b1101 v
1w
#359
0w
#360
b01001110100100 K
b1100 v
1w
#361
0w
#362
b01001110100011 K
b1011 v
1w
#363
0w
#364
b01001110100010 K
b1010 v
1w
#365
0w
#366
b01001110100001 K
b1001 v
1w
#367
0w
#368
b01001110100000 K
b1000 v
1w
#369
0w
#370
b01001110011111 K
b0111 v
1w
#371
0w
#372
b01001110011110 K
b0110 v
1w
#373
0w
#374
b01001110011101 K
b0101 v
1w
#375
0w
#376
b01001110011100 K
b0100 v
1w
#377
0w
#378
b01001110011011 K
b0011 v
1w
#379
0w
#380
b01001110011010 K
b0010 v
1w
#381
0w
#382
b01001110011001 K
b0001 v
1w
#383
0w
#384
b01001110011000 K
b0000 v
1w
#385
0w
#386
b01001110010111 K
b1111 v
1w
#387
0w
#388
b01001110010110 K
b1110 v
1w
#389
0w
#390
b01001110010101 K
b1101 v
1w
#391
0w
#392
b01001110010100 K
b1100 v
1w
#393
0w
#394
b01001110010011 K
b1011 v
1w
#395
0w
#396
b01001110010010 K
b1010 v
1w
#397
0w
#398
b01001110010001 K
b1001 v
1w
#399
0w
#400
b01001110010000 K
b1000 v
1w
#401
0w
#402
b01001110001111 K
b0111 v
1w
#403
0w
#404
b01001110001110 K
b0110 v
1w
#405
0w
#406
b01001110001101 K
b0101 v
1w
#407
0w
#408
b01001110001100 K
b0100 v
1w
#409
0w
#410
b01001110001011 K
b0011 v
1w
#411
0w
#412
b01001110001010 K
b0010 v
1w
#413
0w
#414
b01001110001001 K
b0001 v
1w
#415
0w
#416
b01001110001000 K
b0000 v
1w
#417
0w
#418
b01001110000111 K
b1111 v
1w
#419
0w
#420
b01001110000110 K
b1110 v
1w
#421
0w
#422
b01001110000101 K
b1101 v
1w
#423
0w
#424
b01001110000100 K
b1100 v
1w
#425
0w
#426
b01001110000011 K
b1011 v
1w
#427
0w
#428
b01001110000010 K
b1010 v
1w
#429
0w
#430
b01001110000001 K
b1001 v
1w
#431
0w
#432
b01001110000000 K
b1000 v
1w
#433
0w
#434
b01001101111111 K
b0111 v
1w
#435
0w
#436
b01001101111110 K
b0110 v
1w
#437
0w
#438
b01001101111101 K
b0101 v
1w
#439
0w
#440
b01001101111100 K
b0100 v
1w
#441
0w
#442
b01001101111011 K
b0011 v
1w
#443
0w
#444
b01001101111010 K
b0010 v
1w
#445
0w
#446
b01001101111001 K
b0001 v
1w
#447
0w
#448
b01001101111000 K
b0000 v
1w
#449
0w
#450
b01001101110111 K
b1111 v
1w
#451
0w
#452
b01001101110110 K
b1110 v
1w
#453
0w
#454
b01001101110101 K
b1101 v
1w
#455
0w
#456
b01001101110100 K
b1100 v
1w
#457
0w
#458
b01001101110011 K
b1011 v
1w
#459
0w
#460
b01001101110010 K
b1010 v
1w
#461
0w
#462
b01001101110001 K
b1001 v
1w
#463
0w
#464
b01001101110000 K
b1000 v
1w
#465
0w
#466
b01001101101111 K
b0111 v
1w
#467
0w
#468
b01001101101110 K
b0110 v
1w
#469
0w
#470
b01001101101101 K
b0101 v
1w
#471
0w
#472
b01001101101100 K
b0100 v
1w
#473
0w
#474
b01001101101011 K
b0011 v
1w
#475
0w
#476
b01001101101010 K
b0010 v
1w
#477
0w
#478
b01001101101001 K
b0001 v
1w
#479
0w
#480
b01001101101000 K
b0000 v
1w
#481
0w
#482
b01001101100111 K
b1111 v
1w
#483
0w
#484
b01001101100110 K
b1110 v
1w
#485
0w
#486
b01001101100101 K
b1101 v
1w
#487
0w
#488
b01001101100100 K
b1100 v
1w
#489
0w
#490
b01001101100011 K
b1011 v
1w
#491
0w
#492
b01001101100010 K
b1010 v
1w
#493
0w
#494
b01001101100001 K
b1001 v
1w
#495
0w
#496
b01001101100000 K
b1000 v
1w
#497
0w
#498
b01001101011111 K
b0111 v
1w
